LAB2/Problem 3/wave3.vcd
$date
	Tue Aug 19 04:13:06 2025
$end
$version
	Icarus Verilog
$end
$timescale
	1ps
$end
$scope module tb3 $end
$var wire 1 ! dispense $end
$var wire 1 " chg5 $end
$var reg 1 # clk $end
$var reg 2 $ coin [1:0] $end
$var reg 1 % reset $end
$upscope $end
$enddefinitions $end
$comment Show the parameter values. $end
$dumpall
$end
#0
$dumpvars
1%
b0 $
0#
x"
x!
$end
#5000
0"
0!
1#
#10000
0#
#12000
0%
#15000
1#
#20000
0#
#22000
b1 $
#25000
1#
#30000
0#
#32000
b0 $
#35000
1#
#40000
0#
#42000
b10 $
#45000
1#
#50000
0#
#52000
b0 $
#55000
1#
#60000
0#
#62000
b1 $
#65000
1!
1#
#70000
0#
#72000
b0 $
#75000
0!
1#
#80000
0#
#82000
b10 $
#85000
1#
#90000
0#
#92000
b0 $
#95000
1#
#100000
0#
#102000
b10 $
#105000
1!
1#
#110000
0#
#112000
b0 $
#115000
0!
1#
#120000
0#
#122000
b10 $
#125000
1#
#130000
0#
#132000
b0 $
#135000
1#
#140000
0#
#142000
b10 $
#145000
1!
1#
#150000
0#
#152000
b0 $
#155000
0!
1#
#160000
0#
#162000
b10 $
#165000
1#
#170000
0#
#172000
b1 $
#175000
1#
#180000
0#
#182000
b10 $
#185000
1"
1!
1#
#190000
0#
#192000
b0 $
#195000
0"
0!
1#
